# This file uses centimeters as units for non-parametric coordinates.

v 0.707107 -1.000000 -0.707107
v 0.000000 -1.000000 -1.000000
v -0.707107 -1.000000 -0.707107
v -1.000000 -1.000000 0.000000
v -0.707107 -1.000000 0.707107
v 0.000000 -1.000000 1.000000
v 0.707107 -1.000000 0.707107
v 1.000000 -1.000000 0.000000
v 0.707107 1.000000 -0.707107
v 0.000000 1.000000 -1.000000
v -0.707107 1.000000 -0.707107
v -1.000000 1.000000 0.000000
v -0.707107 1.000000 0.707107
v 0.000000 1.000000 1.000000
v 0.707107 1.000000 0.707107
v 1.000000 1.000000 0.000000
v 0.000000 -1.000000 0.000000
v 0.000000 1.000000 0.000000
vt 0.610485 0.045765
vt 0.500000 0.000000
vt 0.389515 0.045765
vt 0.343750 0.156250
vt 0.389515 0.266735
vt 0.500000 0.312500
vt 0.610485 0.266735
vt 0.656250 0.156250
vt 0.375000 0.312500
vt 0.406250 0.312500
vt 0.437500 0.312500
vt 0.468750 0.312500
vt 0.500000 0.312500
vt 0.531250 0.312500
vt 0.562500 0.312500
vt 0.593750 0.312500
vt 0.625000 0.312500
vt 0.375000 0.688440
vt 0.406250 0.688440
vt 0.437500 0.688440
vt 0.468750 0.688440
vt 0.500000 0.688440
vt 0.531250 0.688440
vt 0.562500 0.688440
vt 0.593750 0.688440
vt 0.625000 0.688440
vt 0.610485 0.733265
vt 0.500000 0.687500
vt 0.389515 0.733265
vt 0.343750 0.843750
vt 0.389515 0.954235
vt 0.500000 1.000000
vt 0.610485 0.954235
vt 0.656250 0.843750
vt 0.500000 0.150000
vt 0.500000 0.837500
f 1/9 2/10 10/19 9/18
f 2/10 3/11 11/20 10/19
f 3/11 4/12 12/21 11/20
f 4/12 5/13 13/22 12/21
f 5/13 6/14 14/23 13/22
f 6/14 7/15 15/24 14/23
f 7/15 8/16 16/25 15/24
f 8/16 1/17 9/26 16/25
f 2/2 1/1 17/35
f 3/3 2/2 17/35
f 4/4 3/3 17/35
f 5/5 4/4 17/35
f 6/6 5/5 17/35
f 7/7 6/6 17/35
f 8/8 7/7 17/35
f 1/1 8/8 17/35
f 9/33 10/32 18/36
f 10/32 11/31 18/36
f 11/31 12/30 18/36
f 12/30 13/29 18/36
f 13/29 14/28 18/36
f 14/28 15/27 18/36
f 15/27 16/34 18/36
f 16/34 9/33 18/36
